﻿//public ExcelHelper(string workBookPath, string tempPath, string userID, bool useStream)
        //{
        //    this.workBookPath = workBookPath;
        //    this.tempPath = tempPath;
        //    this.fileName = Path.GetFileName(workBookPath);
        //    this.userID = userID;
        //    this.excludedColumn = new List<string>();
        //    this.excludedColumnSum = new List<string>();
        //    this.dateColumns = new List<string>();
        //    this.ignoreCells = new List<ICell>();
        //    if (useStream == true)
        //    {
        //        this.streamWorkBook = LoadFileStream();
        //    }
        //    else
        //    {
        //        this.workBook = LoadFile();
        //    }

        //}

//public SXSSFWorkbook streamWorkBook;

#region STREAMING WORKBOOK
/*
//=======================================================================================================================================
//====================================================STREAMING WORK BOOK================================================================
//=======================================================================================================================================
        
public void CreateRows(SXSSFSheet _sheet, int _loop, int tempRow)
{
    if (_loop <= 1) return;
    var iRowMove = _sheet.LastRowNum - tempRow;

    for (int i = iRowMove - 1; i >= 0; i--)
    {
        MoveRow(_sheet, tempRow + i + 1, tempRow + i + _loop);
    }

    for (int i = 0; i < _loop - 1; i++) //ignore first row
    {
        CloneRow(streamWorkBook, _sheet, tempRow + i, tempRow + i + 1);
    }
}

public void CopyRangeTo(SXSSFSheet _sheet, string _range, int _rowCopyTo)
{
    string[] cells = _range.Split(':');
    if (cells.Length != 2) return;

    var startCell = GetCellByAddress(_sheet, cells[0]);
    var endCell = GetCellByAddress(_sheet, cells[1]);

    var rowInsert = endCell.RowIndex - startCell.RowIndex + 1;

    for (int i = 0; i < rowInsert; i++)
    {
        CloneRow(this.streamWorkBook, _sheet, startCell.RowIndex + i, _rowCopyTo + i);
    }
}

public void CopyRangeTo(SXSSFSheet _sheet, ICell _startCell, ICell _endCell, int _rowCopyTo)
{

    var rowInsert = _endCell.RowIndex - _startCell.RowIndex + 1;

    for (int i = 0; i < rowInsert; i++)
    {
        CloneRow(this.streamWorkBook, _sheet, _startCell.RowIndex + i, _rowCopyTo + i);
    }
}


public void CopyRangeTo2(SXSSFSheet _sheet, ICell _startCell, ICell _endCell, int _rowCopyTo, DataTable _dataTable, int _rowIndex)
{

    var rowInsert = _endCell.RowIndex - _startCell.RowIndex + 1;

    for (int i = 0; i < rowInsert; i++)
    {
        CloneRow2(this.streamWorkBook, _sheet, _startCell.RowIndex + i, _rowCopyTo + i, _dataTable, _rowIndex);
    }
}


public void CreateRanges(SXSSFSheet _sheet, DataTable _dataTable, int _loop, string _range)
{
    string[] cells = _range.Split(':');
    if (cells.Length != 2) return;

    var startCell = GetCellByAddress(_sheet, cells[0]);
    var endCell = GetCellByAddress(_sheet, cells[1]);

    var numRowofRange = endCell.RowIndex - startCell.RowIndex + 1;
    var rowInsert = numRowofRange * _loop;
    var iRowMove = _sheet.LastRowNum - endCell.RowIndex;

            
    _sheet.SetRandomAccessWindowSize(numRowofRange*2);

    for (int i = iRowMove - 1; i >= 0; i--)
    {
        MoveRow(_sheet, endCell.RowIndex + i + 1, startCell.RowIndex + i + rowInsert);
    }

    var indexCopyTo = endCell.RowIndex + 1;
    for (int i = 0; i < _loop ; i++) //ignore first range
    {
        if(i > 0 )
        {
            startCell = GetCellByAddress(_sheet, cells[0], numRowofRange*i);
            endCell = GetCellByAddress(_sheet, cells[1], numRowofRange*i);
        }
               
        if(i < _loop - 1)
            this.CopyRangeTo2(_sheet, startCell, endCell, indexCopyTo, _dataTable, i);


        //for streaming workbook
        //replace data to previous range
        //InsertData(_sheet, _dataTable, i, startCell, endCell);


        indexCopyTo += numRowofRange;
    }

}




public void InsertRowData(SXSSFSheet _sheet, DataRow _rowData, int _rowIndex)
{
    List<string> infoColNames = new List<string>(); //column name of data Result

    var rowInfo = _sheet.GetRow(_rowIndex);
    if (rowInfo == null) return;

    for (int i = 0; i < rowInfo.LastCellNum; i++)
    {
        var cell = rowInfo.GetCell(i);
        if (cell == null) cell = rowInfo.CreateCell(i);
        infoColNames.Add(cell.StringCellValue);
    }

    for (int j = 0; j < infoColNames.Count; j++)
    {
        if (string.IsNullOrEmpty(infoColNames[j])) continue;
        var cell = GetCellByIndex(_sheet, _rowIndex, j);

        double temp = 0;
        var cellValue = _rowData[infoColNames[j].ToLower()].ToString();
        if (double.TryParse(cellValue, out temp) && !excludedColumn.Contains(infoColNames[j].ToLower()))
        {
            SetCellValue(cell, null, temp);
        }
        else
        {
            SetCellValue(cell, null, cellValue + "");
        }
    }

}

public void InsertRowData(SXSSFSheet _sheet, DataRow _rowData, int _rowIndex, int _no)
{
    List<string> infoColNames = new List<string>(); //column name of data Result

    var rowInfo = _sheet.GetRow(_rowIndex);
    if (rowInfo == null) return;

    for (int i = 0; i < rowInfo.LastCellNum; i++)
    {
        var cell = rowInfo.GetCell(i);
        if (cell == null) cell = rowInfo.CreateCell(i);
        infoColNames.Add(cell.StringCellValue);
    }

    for (int j = 0; j < infoColNames.Count; j++)
    {
        if (string.IsNullOrEmpty(infoColNames[j])) continue;
        var cell = GetCellByIndex(_sheet, _rowIndex, j);

        if (infoColNames[j].ToLower() == "no" || infoColNames[j].ToLower() == "stt")
        {
            SetCellValue(cell, null, _no);
            continue;
        }

        double temp = 0;
        var cellValue = _rowData[infoColNames[j].ToLower()].ToString();
        if (double.TryParse(cellValue, out temp) && !excludedColumn.Contains(infoColNames[j].ToLower()))
        {
            SetCellValue(cell, null, temp);
        }
        else
        {
            SetCellValue(cell, null, cellValue + "");
        }
    }

}

///<summary>
///Insert datas row by row
///</summary>
public void InsertData(SXSSFSheet _sheet, DataTable _dataTable, int _startRow)
{
    List<string> infoColNames = new List<string>(); //column name of data Result

    var rowInfo = _sheet.GetRow(_startRow);
    if (rowInfo == null) return;

    for (int i = 0; i < rowInfo.LastCellNum; i++)
    {
        var cell = rowInfo.GetCell(i);
        if (cell == null) cell = rowInfo.CreateCell(i);
        infoColNames.Add(cell.StringCellValue);
    }

    var rowInsert = _dataTable.Rows.Count;
    this.CreateRows(_sheet, rowInsert, _startRow);

    var iNo = 0;
    for (int i = 0; i < _dataTable.Rows.Count; i++)
    {
        iNo++;
        for (int j = 0; j < infoColNames.Count; j++)
        {
            if (string.IsNullOrEmpty(infoColNames[j])) continue;
            var cell = GetCellByIndex(_sheet, i + _startRow, j);
            if (infoColNames[j].ToLower() == "no" || infoColNames[j].ToLower() == "stt")
            {
                SetCellValue(cell, null, iNo);
            }
            else if (dateColumns.Contains(infoColNames[j].ToLower()))
            {
                var strVal = _dataTable.Rows[i][infoColNames[j].ToLower()].ToString();

                DateTime d = new DateTime();
                try
                {
                    d = DateTime.ParseExact(strVal, "dd/MM/yyyy", null);
                    SetCellValue(cell, null, d);
                }
                catch
                {
                    SetCellValue(cell, null, strVal + "");
                }
            }
            else if (_dataTable.Columns[infoColNames[j].ToLower()].DataType == typeof(byte[])) //infoColNames[j].ToLower().Contains("imagebyte")
            {
                //insert image
                InsertImageOneCell(_sheet, cell, (byte[])_dataTable.Rows[i][infoColNames[j].ToLower()]);
            }
            else
            {
                double temp = 0;
                var cellValue = _dataTable.Rows[i][infoColNames[j].ToLower()].ToString();
                if (double.TryParse(cellValue, out temp) && !excludedColumn.Contains(infoColNames[j].ToLower()))
                {
                    SetCellValue(cell, null, temp);
                }
                else
                {
                    SetCellValue(cell, null, cellValue + "");
                }
            }
        }
    }
}


///<summary>
///Insert data into range (each row in datatable insert to 1 range)
///</summary>
public void InsertData(SXSSFSheet _sheet, DataTable _dataTable, string _range)
{
    string[] cells = _range.Split(':');
    if (cells.Length != 2) return;

    var startCell = GetCellByAddress(_sheet, cells[0]);
    var endCell = GetCellByAddress(_sheet, cells[1]);


    var rangeInsert = _dataTable.Rows.Count;
    var rowNumOfRange = endCell.RowIndex - startCell.RowIndex + 1;
    var rowIndex = startCell.RowIndex;


    this.CreateRanges(_sheet, _dataTable, rangeInsert, _range);

    // cannot use this in streaming workbook
    ////loop row in datatable
    //for (int i = 0; i < rangeInsert; i++)
    //{
    //    // loop row in form
    //    for (var j = 0; j < rowNumOfRange; j++)
    //    {
    //        var row = _sheet.GetRow(rowIndex);
    //        if (row == null) row = _sheet.CreateRow(rowIndex);

    //        for (var jj = 0; jj < row.LastCellNum; jj++)
    //        {
    //            var cell = GetCellByIndex(_sheet, rowIndex, jj);
    //            string cellText = cell.CellType == CellType.String ? cell.StringCellValue : "";

    //            ReplaceDataToString(_sheet, cell, _dataTable.Rows[i], cellText, _dataTable);
    //        }
    //        rowIndex++;
    //    }
    //}
}


public void InsertData(SXSSFSheet _sheet, int _loop, DataTable _dataTable, string _range)
{
    string[] cells = _range.Split(':');
    if (cells.Length != 2) return;

    var startCell = GetCellByAddress(_sheet, cells[0]);
    var endCell = GetCellByAddress(_sheet, cells[1]);


    var rangeInsert = _loop;
    var rowNumOfRange = endCell.RowIndex - startCell.RowIndex + 1;
    var rowIndex = startCell.RowIndex;


    //loop row in datatable
    for (int i = 0; i < rangeInsert; i++)
    {
        // loop row in form
        for (var j = 0; j < rowNumOfRange; j++)
        {
            var row = _sheet.GetRow(rowIndex);
            if (row == null) row = _sheet.CreateRow(rowIndex);

            for (var jj = 0; jj < row.LastCellNum; jj++)
            {
                var cell = GetCellByIndex(_sheet, rowIndex, jj);
                string cellText = cell.CellType == CellType.String ? cell.StringCellValue : "";

                for (var q = 0; q < _dataTable.Rows.Count; q++)
                {
                    ReplaceDataToString(_sheet, cell, _dataTable.Rows[q], cellText, _dataTable);
                }
            }
            rowIndex++;
        }
    }
}

public void InsertData(SXSSFSheet _sheet, DataTable _dataTable, int _rowIndex, ICell _startCell, ICell _endCell)
{
    var startCell = _startCell;
    var endCell = _endCell;


    var rowNumOfRange = endCell.RowIndex - startCell.RowIndex + 1;
    var rowIndex = startCell.RowIndex;


    // loop row in form
    for (var j = 0; j < rowNumOfRange; j++)
    {
        var row = _sheet.GetRow(rowIndex);
        if (row == null) row = _sheet.CreateRow(rowIndex);

        for (var jj = 0; jj < row.LastCellNum; jj++)
        {
            var cell = GetCellByIndex(_sheet, rowIndex, jj);
            string cellText = cell.CellType == CellType.String ? cell.StringCellValue : "";

            ReplaceDataToString(_sheet, cell, _dataTable.Rows[_rowIndex], cellText, _dataTable);
        }
        rowIndex++;
    }
}

public void InsertData(SXSSFSheet _sheet, DataTable _dataTable, int _startRow, EXOptions options)
{
    if (options == null || options.sheets.Count <= 0)
    {
        InsertData(_sheet, _dataTable, _startRow);
    }
    else
    {
        int idxSheet = streamWorkBook.GetSheetIndex(_sheet);
        EXSheet sheetOptions = options.sheets.Where(d => d.SheetIndex == idxSheet).FirstOrDefault();

        if (sheetOptions == null || (sheetOptions.merges.Count <= 0 && sheetOptions.GrandTotal == null))
        {
            InsertData(_sheet, _dataTable, _startRow);
        }
        else
        {
            int idxRow = _startRow;
            var data = _dataTable.AsEnumerable();

            //insert data with sub total
            InsertGroupData(_sheet, data, sheetOptions.merges, 0, ref idxRow);

            //Insert grand total
            if (sheetOptions.GrandTotal != null)
            {
                if (sheetOptions.GrandTotal.isTotal == true)
                {
                    InsertTotal(_sheet, "", data, 0, 0, sheetOptions.GrandTotal, "grand", ref idxRow);
                    CloneRow(streamWorkBook, _sheet, idxRow + 1, idxRow);
                }
                else
                {
                    CloneRow(streamWorkBook, _sheet, idxRow + 1, idxRow);
                }
            }
        }
    }
}

private void InsertGroupData(SXSSFSheet _sheet, IEnumerable<DataRow> _sourceData, List<EXMerge> _merges, int _mergeIndex, ref int _idxRow)
{
    if (_mergeIndex >= _merges.Count)
    {
        int no = 1;
        foreach (var item in _sourceData)
        {
            CloneRow(workBook, _sheet, _idxRow, _idxRow + 1);
            InsertRowData(_sheet, item, _idxRow, no++);

            _idxRow++;
        }
    }
    else
    {
        var groups = _sourceData.GroupBy(g => g[_merges[_mergeIndex].ColumnName]);
        foreach (var group in groups)
        {
            var groupValue = group.Key + "";
            var groupData = group.Select(s => s);

            if (_merges[_mergeIndex].isTotal == true && _merges[_mergeIndex].isTotalTop == true)
            {
                InsertTotal(_sheet, groupValue, groupData, 0, 0, _merges[_mergeIndex], "sub", ref _idxRow);
            }

            int startMerge = _idxRow;

            InsertGroupData(_sheet, groupData, _merges, _mergeIndex + 1, ref _idxRow);

            int endMerge = _idxRow - 1;

            if (_merges[_mergeIndex].isTotal == true && _merges[_mergeIndex].isTotalTop == false)
            {
                InsertTotal(_sheet, groupValue, groupData, startMerge, endMerge, _merges[_mergeIndex], "sub", ref _idxRow);
            }
            else if (_merges[_mergeIndex].isTotal == true && _merges[_mergeIndex].isTotalTop == true)
            {
                _sheet.AddMergedRegion(new CellRangeAddress(startMerge, endMerge, _merges[_mergeIndex].ColumnIndex, _merges[_mergeIndex].ColumnIndex));
            }
        }

    }
}

private void InsertTotal(SXSSFSheet _sheet, string _groupValue, IEnumerable<DataRow> _groupData, int _startMerge, int _endMerge, EXMerge _mergeOption, string _totalType, ref int _idxRow)
{
    if (_mergeOption.isHaveRowTotal == true)
    {
        //sub total
        CloneRow(streamWorkBook, _sheet, _idxRow, _idxRow + 1);

        var ColumnMergeOptions = _mergeOption.ColumnMergeOptions;
        var row = _sheet.GetRow(_idxRow);

        string strTotal = _totalType == "sub" ? "Total " : (_totalType == "grand" ? "Grand Total " : "");

        if (row != null)
        {
            switch (_mergeOption.SubTotalType)
            {
                case SubTotalType.Count:
                    {
                        for (int i = _mergeOption.ColumnIndex; i < row.LastCellNum; i++)
                        {
                            var cell = GetCellByIndex(_sheet, _idxRow, i);
                            string value = "";

                            if (i == _mergeOption.ColumnIndex)
                            {
                                value = strTotal + _groupValue + ": " + _groupData.Count();
                            }

                            cell.SetCellValue(value);
                            SetFont(cell, _mergeOption.SubTotalFont);
                            SetCellBackgroundColor(cell, _mergeOption.CellColor);
                        }
                        break;
                    }
                case SubTotalType.SumValue:
                    {
                        for (int i = _mergeOption.ColumnIndex; i < row.LastCellNum; i++)
                        {
                            var cell = GetCellByIndex(_sheet, _idxRow, i);
                            string value = "";

                            if (i == _mergeOption.ColumnIndex)
                            {
                                value = strTotal + _groupValue + ": " + _groupData.Count();
                                cell.SetCellValue(value);
                            }
                            else
                            {
                                try
                                {
                                    double sumValue = 0;
                                    double tmp = 0;
                                    string columnName = cell.StringCellValue;
                                    if (!excludedColumnSum.Contains(columnName.ToLower()))
                                    {
                                        sumValue = _groupData.Sum(s => double.TryParse(s[columnName].ToString(), out tmp) ? tmp : 0);
                                        cell.SetCellValue(sumValue);
                                    }
                                    else
                                    {
                                        cell.SetCellValue(value);
                                    }

                                }
                                catch
                                {
                                    cell.SetCellValue(value);
                                }
                            }
                            SetFont(cell, _mergeOption.SubTotalFont);
                            SetCellBackgroundColor(cell, _mergeOption.CellColor);
                        }
                        break;
                    }
                case SubTotalType.Average:
                    {
                        for (int i = _mergeOption.ColumnIndex; i < row.LastCellNum; i++)
                        {
                            var cell = GetCellByIndex(_sheet, _idxRow, i);
                            string value = "";

                            if (i == _mergeOption.ColumnIndex)
                            {
                                value = strTotal + _groupValue + ": " + _groupData.Count();
                                cell.SetCellValue(value);
                            }
                            else
                            {
                                try
                                {
                                    double sumValue = 0;
                                    double countData = 0;
                                    double tmp = 0;
                                    string columnName = cell.StringCellValue;

                                    if (!excludedColumnSum.Contains(columnName.ToLower()))
                                    {
                                        sumValue = _groupData.Sum(s => double.TryParse(s[columnName].ToString(), out tmp) ? tmp : 0);
                                        countData = _groupData.Count() > 0 ? _groupData.Count() : 1;

                                        cell.SetCellValue(sumValue / countData);
                                    }
                                    else
                                    {
                                        cell.SetCellValue(value);
                                    }


                                }
                                catch
                                {
                                    cell.SetCellValue(value);
                                }
                            }
                            SetFont(cell, _mergeOption.SubTotalFont);
                            SetCellBackgroundColor(cell, _mergeOption.CellColor);
                        }
                        break;
                    }
                default:
                    {
                        for (int i = _mergeOption.ColumnIndex; i < row.LastCellNum; i++)
                        {
                            var cell = GetCellByIndex(_sheet, _idxRow, i);
                            cell.SetCellValue("");
                            SetFont(cell, _mergeOption.SubTotalFont);
                            SetCellBackgroundColor(cell, _mergeOption.CellColor);
                        }
                        break;
                    }
            }
        }
    }

    if (_mergeOption.MergeColumnFrom >= 0 && _mergeOption.MergeColumnTo >= 0 && _mergeOption.MergeColumnFrom < _mergeOption.MergeColumnTo)
    {
        _sheet.AddMergedRegion(new CellRangeAddress(_idxRow, _idxRow, _mergeOption.MergeColumnFrom, _mergeOption.MergeColumnTo));
    }

    if (_startMerge >= 0 && _endMerge >= 0 && _startMerge < _endMerge)
    {
        _sheet.AddMergedRegion(new CellRangeAddress(_startMerge, _endMerge, _mergeOption.ColumnIndex, _mergeOption.ColumnIndex));
    }

    if (_mergeOption.isHaveRowTotal == true)
    {
        _idxRow++;
    }


}






private void MoveRow(SXSSFSheet _sheet, int _rowIndex, int _rowMoveTo)
{
    CloneRow(streamWorkBook, _sheet, _rowIndex, _rowMoveTo);


    var sourceRow = _sheet.GetRow(_rowIndex);
    if (sourceRow != null)
    {
        for (int i = 0; i < sourceRow.LastCellNum; i++)
        {
            var cell = sourceRow.GetCell(i);
            if (cell == null) continue;

            cell.SetCellValue("");
            var newCellStyle = workBook.CreateCellStyle();
            cell.CellStyle = newCellStyle;
        }
    }

    //Delete merge of source row
    for (int i = 0; i < _sheet.NumMergedRegions; i++)
    {
        CellRangeAddress cellRangeAddress = _sheet.GetMergedRegion(i);

        if (cellRangeAddress.FirstRow == _rowIndex)
        {
            _sheet.RemoveMergedRegion(i);
            i -= 1;
        }
    }
}


private void CloneRow(SXSSFWorkbook workbook, SXSSFSheet worksheet, int sourceRowNum, int destinationRowNum)
{
    // Get the source / new row
    var newRow = worksheet.GetRow(destinationRowNum);
    var sourceRow = worksheet.GetRow(sourceRowNum);

    if (sourceRow == null) sourceRow = worksheet.CreateRow(sourceRowNum);

    try
    {
        newRow = worksheet.CreateRow(destinationRowNum);
    }
    catch { }

    //Set newRow height equal sourceRow
    newRow.Height = sourceRow.Height;
    // Loop through source columns to add to new row
    for (int i = 0; i < sourceRow.LastCellNum; i++)
    {
        // Grab a copy of the old/new cell
        var oldCell = sourceRow.GetCell(i);
        var newCell = newRow.CreateCell(i);

        // If the old cell is null jump to next cell
        if (oldCell == null)
        {
            newCell = null;
            continue;
        }

        // Copy style from old cell and apply to new cell
        newCell.CellStyle = oldCell.CellStyle;
        // Set the cell data type
        newCell.SetCellType(oldCell.CellType);

        // Set the cell data value
        switch (oldCell.CellType)
        {
            case CellType.Blank:
                //newCell.SetCellValue(oldCell.RichStringCellValue);
                break;
            case CellType.Boolean:
                newCell.SetCellValue(oldCell.BooleanCellValue);
                break;
            case CellType.Error:
                newCell.SetCellErrorValue(oldCell.ErrorCellValue);
                break;
            case CellType.Formula:
                newCell.SetCellFormula(oldCell.CellFormula);
                break;
            case CellType.Numeric:
                newCell.SetCellValue(oldCell.NumericCellValue);
                break;
            case CellType.String:
                newCell.SetCellValue(oldCell.RichStringCellValue);
                break;
        }

    }

    // If there are are any merged regions in the source row, copy to new row
    for (int i = 0; i < worksheet.NumMergedRegions; i++)
    {
        CellRangeAddress cellRangeAddress = worksheet.GetMergedRegion(i);
        if (cellRangeAddress.FirstRow == sourceRow.RowNum)
        {
            CellRangeAddress newCellRangeAddress = new CellRangeAddress(
                                                                        newRow.RowNum,
                                                                        (newRow.RowNum + (cellRangeAddress.LastRow - cellRangeAddress.FirstRow)),
                                                                        cellRangeAddress.FirstColumn,
                                                                        cellRangeAddress.LastColumn
                                                                        );
            if (newCellRangeAddress.FirstColumn == cellRangeAddress.FirstColumn && newCellRangeAddress.LastColumn == cellRangeAddress.LastColumn
                && newCellRangeAddress.FirstRow == cellRangeAddress.FirstRow && newCellRangeAddress.LastRow == cellRangeAddress.LastRow) continue;
            worksheet.AddMergedRegion(newCellRangeAddress);
        }
    }


}




private void CloneRow2(SXSSFWorkbook workbook, SXSSFSheet worksheet, int sourceRowNum, int destinationRowNum, DataTable _dataTable, int _rowIndex)
{
    // Get the source / new row
    var newRow = worksheet.GetRow(destinationRowNum);
    var sourceRow = worksheet.GetRow(sourceRowNum);

    if (sourceRow == null) sourceRow = worksheet.CreateRow(sourceRowNum);

    try
    {
        newRow = worksheet.CreateRow(destinationRowNum);
    }
    catch { }

    //Set newRow height equal sourceRow
    newRow.Height = sourceRow.Height;
    // Loop through source columns to add to new row
    for (int i = 0; i < sourceRow.LastCellNum; i++)
    {
        // Grab a copy of the old/new cell
        var oldCell = sourceRow.GetCell(i);
        var newCell = newRow.CreateCell(i);

        // If the old cell is null jump to next cell
        if (oldCell == null)
        {
            newCell = null;
            continue;
        }

        // Copy style from old cell and apply to new cell
        newCell.CellStyle = oldCell.CellStyle;
        // Set the cell data type
        newCell.SetCellType(oldCell.CellType);

        // Set the cell data value
        switch (oldCell.CellType)
        {
            case CellType.Blank:
                //newCell.SetCellValue(oldCell.RichStringCellValue);
                break;
            case CellType.Boolean:
                newCell.SetCellValue(oldCell.BooleanCellValue);
                break;
            case CellType.Error:
                newCell.SetCellErrorValue(oldCell.ErrorCellValue);
                break;
            case CellType.Formula:
                newCell.SetCellFormula(oldCell.CellFormula);
                break;
            case CellType.Numeric:
                newCell.SetCellValue(oldCell.NumericCellValue);
                break;
            case CellType.String:
                newCell.SetCellValue(oldCell.RichStringCellValue);
                break;
        }

        //replace old cell
        if (ignoreCells.Contains(oldCell))
            continue;
        string cellText = oldCell.CellType == CellType.String ? oldCell.StringCellValue : "";

        ReplaceDataToString(worksheet, oldCell, _dataTable.Rows[_rowIndex], cellText, _dataTable);


    }

    // If there are are any merged regions in the source row, copy to new row
    for (int i = 0; i < worksheet.NumMergedRegions; i++)
    {
        CellRangeAddress cellRangeAddress = worksheet.GetMergedRegion(i);
        if (cellRangeAddress.FirstRow == sourceRow.RowNum)
        {
            CellRangeAddress newCellRangeAddress = new CellRangeAddress(
                                                                        newRow.RowNum,
                                                                        (newRow.RowNum + (cellRangeAddress.LastRow - cellRangeAddress.FirstRow)),
                                                                        cellRangeAddress.FirstColumn,
                                                                        cellRangeAddress.LastColumn
                                                                        );
            if (newCellRangeAddress.FirstColumn == cellRangeAddress.FirstColumn && newCellRangeAddress.LastColumn == cellRangeAddress.LastColumn
                && newCellRangeAddress.FirstRow == cellRangeAddress.FirstRow && newCellRangeAddress.LastRow == cellRangeAddress.LastRow) continue;
            worksheet.AddMergedRegion(newCellRangeAddress);
        }
    }


}





public ICell GetCellByIndex(SXSSFSheet _sheet, int _rowIndex, int _colIndex)
{
    IRow row = null;
    ICell cell = null;

    row = _sheet.GetRow(_rowIndex);
    if (row == null) row = _sheet.CreateRow(_rowIndex);

    cell = row.GetCell(_colIndex);
    if (cell == null) cell = row.CreateCell(_colIndex);

    return cell;
}

public ICell GetCellByAddress(SXSSFSheet _sheet, string _address)
{
    ICell cell = null;

    try
    {
        Regex re = new Regex(@"([a-zA-Z]+)(\d+)");
        Match result = re.Match(_address);

        string alphaPart = result.Groups[1].Value;
        string numberPart = result.Groups[2].Value;
        int temp = 0;

        int iCol = mapColumnExcel.IndexOf(alphaPart);
        int iRow = int.TryParse(numberPart, out temp) ? (temp - 1) : -1;

        cell = this.GetCellByIndex(_sheet, iRow, iCol);
    }
    catch
    {

    }

    return cell;
}


public ICell GetCellByAddress(SXSSFSheet _sheet, string _address, int _numRowofRange)
{
    ICell cell = null;

    try
    {
        Regex re = new Regex(@"([a-zA-Z]+)(\d+)");
        Match result = re.Match(_address);

        string alphaPart = result.Groups[1].Value;
        string numberPart = result.Groups[2].Value;
        int temp = 0;

        int iCol = mapColumnExcel.IndexOf(alphaPart);
        int iRow = int.TryParse(numberPart, out temp) ? (temp - 1) : -1;

        cell = this.GetCellByIndex(_sheet, iRow + _numRowofRange, iCol);
    }
    catch
    {

    }

    return cell;
}


public IFont CreateCellFont(string _fontName, float _fontHeight, bool _isBold, bool useStream)
{
    IFont f = this.streamWorkBook.CreateFont();
    f.FontName = _fontName;
    f.FontHeightInPoints = _fontHeight;

    if (_isBold)
    {
        f.Boldweight = (short)FontBoldWeight.Bold;
    }
    else
    {
        f.Boldweight = (short)FontBoldWeight.Normal;
    }
    return f;
}

public IFont CreateCellFont(string _fontName, float _fontHeight, bool _isBold, bool _isItalic, bool _isUnderline, bool useStream)
{
    IFont f = this.streamWorkBook.CreateFont();
    f.FontName = _fontName;
    f.FontHeightInPoints = _fontHeight;

    if (_isBold)
    {
        f.Boldweight = (short)FontBoldWeight.Bold;
    }
    else
    {
        f.Boldweight = (short)FontBoldWeight.Normal;
    }

    if (_isItalic)
    {
        f.IsItalic = true;
    }
    else
    {
        f.IsItalic = false;
    }

    if (_isUnderline)
    {
        f.Underline = FontUnderlineType.Single;
    }
    else
    {
        f.Underline = FontUnderlineType.None;
    }


    return f;
}

public void SetCellBackgroundColor(ICell _cell, byte[] _color, bool useStream)
{
    var color = new XSSFColor(_color);
    var style = (XSSFCellStyle)this.streamWorkBook.CreateCellStyle();
    style.CloneStyleFrom(_cell.CellStyle);

    style.SetFillForegroundColor(color);
    style.FillPattern = FillPattern.SolidForeground;

    _cell.CellStyle = style;
}

public void SetCellBackgroundColor(ICell _cell, Color _color, bool useStream)
{
    var color = new XSSFColor(_color);
    var style = (XSSFCellStyle)this.streamWorkBook.CreateCellStyle();
    style.CloneStyleFrom(_cell.CellStyle);

    style.SetFillForegroundColor(color);
    style.FillPattern = FillPattern.SolidForeground;

    _cell.CellStyle = style;
}

public void SetFont(ICell _cell, IFont _font, bool useStream)
{
    ICellStyle style = streamWorkBook.CreateCellStyle();
    style.CloneStyleFrom(_cell.CellStyle);
    style.SetFont(_font);
    _cell.CellStyle = style;
}

/// <summary>
/// _horizontalAlignment: left, right, center;
/// _verticalAlignment: top, middle, bottom
/// </summary>
public ICellStyle CreateCellStyle(string _stringFormat, string _horizontalAlignment, string _verticalAlignment, IFont _font, bool _haveBorder, bool useStream)
{

    IWorkbook workbook = this.streamWorkBook;
    var style = streamWorkBook.CreateCellStyle();

    if (_haveBorder)
    {
        style.BorderBottom = BorderStyle.Thin;
        style.BorderLeft = BorderStyle.Thin;
        style.BorderRight = BorderStyle.Thin;
        style.BorderTop = BorderStyle.Thin;
        style.BottomBorderColor = HSSFColor.Black.Index;
        style.LeftBorderColor = HSSFColor.Black.Index;
        style.RightBorderColor = HSSFColor.Black.Index;
        style.TopBorderColor = HSSFColor.Black.Index;
    }

    style.SetFont(_font);

    //ALIGN
    if (!string.IsNullOrEmpty(_horizontalAlignment))
    {
        switch (_horizontalAlignment)
        {
            case "left":
                style.Alignment = HorizontalAlignment.Left; break;
            case "center":
                style.Alignment = HorizontalAlignment.Center; break;
            case "right":
                style.Alignment = HorizontalAlignment.Right; break;
        }
    }

    if (!string.IsNullOrEmpty(_verticalAlignment))
    {
        switch (_verticalAlignment)
        {
            case "top":
                style.VerticalAlignment = VerticalAlignment.Top; break;
            case "middle":
                style.VerticalAlignment = VerticalAlignment.Center; break;
            case "bottom":
                style.VerticalAlignment = VerticalAlignment.Bottom; break;

        }
    }

    //Data format
    if (!string.IsNullOrEmpty(_stringFormat))
    {
        style.DataFormat = HSSFDataFormat.GetBuiltinFormat(_stringFormat);
    }



    return style;
}


public void InsertImageOneCell(SXSSFSheet _sheet, ICell _cell, byte[] _data)
{
    try
    {
        var cellWidth = PixelUtil.widthUnits2Pixel((short)_sheet.GetColumnWidth(_cell.ColumnIndex));
        var cellHeight = PixelUtil.heightUnits2Pixel(_cell.Row.Height);

        byte[] MyData = _data;
        MemoryStream stream = new MemoryStream(MyData);
        Bitmap b = new Bitmap(stream);
        var avatar = ResizeImage(b, cellWidth, cellHeight);

        Image img = (Image)avatar;

        InsertImage(_sheet, _cell, img, img.Width, img.Height);
    }
    catch
    {
        SetCellValue(_cell, null, "No Image");
    }
}

public void InsertImageMergeCell(SXSSFSheet _sheet, ICell _cell, byte[] _data)
{
    var cellWidth = 0;
    var cellHeight = 0;

    for (int i = 0; i < _sheet.NumMergedRegions; i++)
    {
        CellRangeAddress cellRangeAddress = _sheet.GetMergedRegion(i);
        if (cellRangeAddress.FirstColumn == _cell.ColumnIndex && cellRangeAddress.FirstRow == _cell.RowIndex)
        {
            var firstCell = GetCellByIndex(_sheet, cellRangeAddress.FirstRow, cellRangeAddress.FirstColumn);
            var lastCell = GetCellByIndex(_sheet, cellRangeAddress.LastRow, cellRangeAddress.LastColumn);

            InsertImage(_sheet, _data, firstCell, lastCell);
        }
    }

    try
    {
        byte[] MyData = _data;
        MemoryStream stream = new MemoryStream(MyData);
        Bitmap b = new Bitmap(stream);
        var avatar = ResizeImage(b, cellWidth, cellHeight);

        Image img = (Image)avatar;

        InsertImage(_sheet, _cell, img, img.Width, img.Height);
    }
    catch
    {
        SetCellValue(_cell, null, "No Image");
    }
}


public void InsertImage(SXSSFSheet _sheet, ICell _cell, byte[] _image, double? _imageWidth, double? _imageHeight)
{
    byte[] data = _image;
    int picInd = streamWorkBook.AddPicture(data, PictureType.JPEG);
    XSSFCreationHelper helper = streamWorkBook.GetCreationHelper() as XSSFCreationHelper;
    XSSFDrawing drawing = _sheet.CreateDrawingPatriarch() as XSSFDrawing;
    XSSFClientAnchor anchor = helper.CreateClientAnchor() as XSSFClientAnchor;
    anchor.AnchorType = AnchorType.MoveDontResize;
    anchor.Col1 = _cell.ColumnIndex;
    anchor.Row1 = _cell.RowIndex;
    XSSFPicture pict = drawing.CreatePicture(anchor, picInd) as XSSFPicture;
    var width = _sheet.GetColumnWidthInPixels(_cell.ColumnIndex);
    var height = _sheet.GetRow(_cell.RowIndex).HeightInPoints;

    var ScaleX = convertPixelToScale(width, _imageWidth == null ? width : (double)_imageWidth);
    var ScaleY = convertPixelToScale(height, _imageHeight == null ? height : (double)_imageHeight);

    pict.Resize(ScaleX, ScaleY);
}

public void InsertImage(SXSSFSheet _sheet, byte[] _image, ICell _startCell, ICell _endCell)
{
    int picInd = streamWorkBook.AddPicture(_image, PictureType.JPEG);
    XSSFCreationHelper helper = streamWorkBook.GetCreationHelper() as XSSFCreationHelper;
    XSSFDrawing drawing = _sheet.CreateDrawingPatriarch() as XSSFDrawing;
    XSSFClientAnchor anchor = helper.CreateClientAnchor() as XSSFClientAnchor;
    anchor.AnchorType = AnchorType.MoveDontResize;
    anchor.Col1 = _startCell.ColumnIndex;
    anchor.Row1 = _startCell.RowIndex;
    anchor.Col2 = _endCell.ColumnIndex + 1;
    anchor.Row2 = _endCell.RowIndex + 1;

    anchor.Dx1 = 10000;
    anchor.Dy1 = 10000;

    XSSFPicture pict = drawing.CreatePicture(anchor, picInd) as XSSFPicture;
}



public void InsertImage(SXSSFSheet _sheet, ICell _cell, Image _image, double? _imageWidth, double? _imageHeight)
{
    byte[] imageBytes;
    using (MemoryStream m = new MemoryStream())
    {
        _image.Save(m, ImageFormat.Png);
        imageBytes = new byte[m.Length];
        //Very Important    
        imageBytes = m.ToArray();

    }//end using

    int picInd = streamWorkBook.AddPicture(imageBytes, PictureType.JPEG);
    XSSFCreationHelper helper = streamWorkBook.GetCreationHelper() as XSSFCreationHelper;
    XSSFDrawing drawing = _sheet.CreateDrawingPatriarch() as XSSFDrawing;
    XSSFClientAnchor anchor = helper.CreateClientAnchor() as XSSFClientAnchor;
    anchor.AnchorType = AnchorType.MoveDontResize;
    anchor.Col1 = _cell.ColumnIndex;
    anchor.Row1 = _cell.RowIndex;
    XSSFPicture pict = drawing.CreatePicture(anchor, picInd) as XSSFPicture;
    var width = _sheet.GetColumnWidthInPixels(_cell.ColumnIndex);
    var height = _sheet.GetRow(_cell.RowIndex).HeightInPoints;

    var ScaleX = convertPixelToScale(width, _imageWidth == null ? width : (double)_imageWidth);
    var ScaleY = convertPixelToScale(height, _imageHeight == null ? height : (double)_imageHeight);

    pict.Resize(ScaleX, ScaleY);
}

public void InsertImage(SXSSFSheet _sheet, Image _image, ICell _startCell, ICell _endCell)
{
    byte[] imageBytes;
    using (MemoryStream m = new MemoryStream())
    {
        _image.Save(m, ImageFormat.Png);
        imageBytes = new byte[m.Length];
        //Very Important    
        imageBytes = m.ToArray();

    }//end using

    int picInd = streamWorkBook.AddPicture(imageBytes, PictureType.JPEG);
    XSSFCreationHelper helper = streamWorkBook.GetCreationHelper() as XSSFCreationHelper;
    XSSFDrawing drawing = _sheet.CreateDrawingPatriarch() as XSSFDrawing;
    XSSFClientAnchor anchor = helper.CreateClientAnchor() as XSSFClientAnchor;
    anchor.AnchorType = AnchorType.MoveDontResize;
    anchor.Col1 = _startCell.ColumnIndex;
    anchor.Row1 = _startCell.RowIndex;
    anchor.Col2 = _endCell.ColumnIndex + 1;
    anchor.Row2 = _endCell.RowIndex + 1;
    XSSFPicture pict = drawing.CreatePicture(anchor, picInd) as XSSFPicture;
}

public void InsertTextBox(SXSSFSheet _sheet, string _range, TextAlign _horizontalAlignment, VerticalAlignment _verticalAlignment, XSSFRichTextString _text)
{

    string[] cells = _range.Split(':');
    if (cells.Length != 2) return;

    var startCell = GetCellByAddress(_sheet, cells[0]);
    var endCell = GetCellByAddress(_sheet, cells[1]);


    XSSFDrawing drawing = _sheet.CreateDrawingPatriarch() as XSSFDrawing;
    var anchor = drawing.CreateAnchor(0, 0, 0, 0, startCell.ColumnIndex, startCell.RowIndex, endCell.ColumnIndex + 1, endCell.RowIndex + 1);
    //anchor.AnchorType = AnchorType.MoveDontResize;
    anchor.AnchorType = AnchorType.MoveDontResize;
    XSSFTextBox textBox = drawing.CreateTextbox(anchor) as XSSFTextBox;
    textBox.VerticalAlignment = _verticalAlignment;
    textBox.SetText(_text);
    startCell.CellStyle.Alignment = HorizontalAlignment.Center;

    foreach (var p in textBox.TextParagraphs)
    {
        p.TextAlign = _horizontalAlignment;
    }
}

            


private SXSSFWorkbook LoadFileStream()
{
    //SXSSFWorkbook _documentStream = new SXSSFWorkbook(100);
    SXSSFWorkbook _documentStream = new SXSSFWorkbook();
    _documentStream.RandomAccessWindowSize = 100;

    XSSFWorkbook _document;
    using (var file = new FileStream(workBookPath, FileMode.Open, FileAccess.Read))
    {
        _document = new XSSFWorkbook(file);
    }

    for (int idxSheet = 0; idxSheet < _document.NumberOfSheets; idxSheet++)
    {
        XSSFSheet sh = (XSSFSheet)_document.GetSheetAt(idxSheet);
        SXSSFSheet shStream = (SXSSFSheet)_documentStream.CreateSheet();
        List<int> colsWidth = new List<int>();

        for (int idxRow = 0; idxRow <= sh.LastRowNum; idxRow++)
        {
            XSSFRow row = (XSSFRow)sh.GetRow(idxRow);
            SXSSFRow rowStream = (SXSSFRow)shStream.CreateRow(idxRow);

            rowStream.Height = row.Height;

            for (int idxCell = 0; idxCell <= row.LastCellNum; idxCell++)
            {
                XSSFCell cell = (XSSFCell)row.GetCell(idxCell);
                SXSSFCell cellStream = (SXSSFCell)rowStream.CreateCell(idxCell);

                if (colsWidth.IndexOf(idxRow) < 0)
                {
                    shStream.SetColumnWidth(idxCell, sh.GetColumnWidth(idxCell));
                    shStream.SetColumnHidden(idxCell, sh.IsColumnHidden(idxCell));
                    colsWidth.Add(idxCell);
                }

                try
                {
                    ICellStyle newStyle = _documentStream.CreateCellStyle();
                    newStyle.CloneStyleFrom(cell.CellStyle);
                    cellStream.CellStyle = newStyle;
                }
                catch { }

                //cellStream.SetAsActiveCell();
                try { cellStream.SetCellType(cell.CellType); } catch { }
                try
                {
                    switch (cell.CellType)
                    {
                        case CellType.Blank:
                            cellStream.SetCellValue(cell.RichStringCellValue);
                            break;
                        case CellType.Boolean:
                            cellStream.SetCellValue(cell.BooleanCellValue);
                            break;
                        case CellType.Error:
                            cellStream.SetCellErrorValue(cell.ErrorCellValue);
                            break;
                        case CellType.Formula:
                            cellStream.SetCellFormula(cell.CellFormula);
                            break;
                        case CellType.Numeric:
                            cellStream.SetCellValue(cell.NumericCellValue);
                            break;
                        case CellType.String:
                            cellStream.SetCellValue(cell.RichStringCellValue);
                            break;
                    }
                }
                catch { }
            }



            for (int i = 0; i < sh.NumMergedRegions; i++)
            {
                CellRangeAddress cellRangeAddress = sh.GetMergedRegion(i);
                if (cellRangeAddress.FirstRow == row.RowNum)
                {
                    CellRangeAddress newCellRangeAddress = new CellRangeAddress(
                                                                                rowStream.RowNum,
                                                                                (rowStream.RowNum + (cellRangeAddress.LastRow - cellRangeAddress.FirstRow)),
                                                                                cellRangeAddress.FirstColumn,
                                                                                cellRangeAddress.LastColumn
                                                                                );
                    //if (newCellRangeAddress.FirstColumn == cellRangeAddress.FirstColumn && newCellRangeAddress.LastColumn == cellRangeAddress.LastColumn
                    //    && newCellRangeAddress.FirstRow == cellRangeAddress.FirstRow && newCellRangeAddress.LastRow == cellRangeAddress.LastRow) continue;
                    shStream.AddMergedRegion(newCellRangeAddress);
                }
            }
        }




                
    }



    return _documentStream;
}
public string WriteDocStream()
{
    if (File.Exists(tempPath))
    {
        File.Delete(tempPath);
    }

    using (FileStream fs = new FileStream(tempPath, FileMode.Create, FileAccess.Write))
    {
        streamWorkBook.Write(fs);
        fs.Close();
    }

    streamWorkBook.Close();
    return tempPath;
}
        
//=======================================================================================================================================


*/

#endregion